{
    "STARPU_MAIN_THREAD_BIND": "1",
    "STARPU_NOPENCL": "0",
    "STARPU_NMAX_FPGA": "0",
    "STARPU_SCHED": "dmda",
    "STARPU_FXT_TRACE": 1,
    "STARPU_TRACE_BUFFER_SIZE": "1024",
    "STARPU_FXT_EVENTS": "TASK|WORKER",
    "STARPU_ENERGY_READER": 1,
    "STARPU_FXT_SUFFIX": "raw_prof_file",
    "ENERGY_SOLVER_DB_NAME": "energy_solver_db",
    "STARPU_CALIBRATE": 1,
    "STARPU_BUS_CALIBRATE": 1
}